shift/nand/vcd_trace.vcd
$date
     Jul 06, 2018       12:07:19
$end

$version
 SystemC 2.3.2-Accellera --- Apr 30 2018 11:38:32
$end

$timescale
     1 ns
$end

$scope module SystemC $end
$var wire    1  aaaaa  A       $end
$var wire    1  aaaab  B       $end
$var wire    1  aaaac  F       $end
$upscope $end
$enddefinitions  $end

$comment
All initial values are dumped below at time 0 sec = 0 timescale units.
$end

$dumpvars
1aaaaa
0aaaab
1aaaac
$end

#5
0aaaaa

#10
1aaaab

#15
0aaaab

#20
1aaaaa

#25
0aaaaa

#30
1aaaab

#35
0aaaab

#40
1aaaaa

#45
0aaaaa

#50
1aaaab

#55
0aaaab

