D-flipflop_w_details /vcd_trace.vcd
$date
     Jul 03, 2018       00:23:23
$end

$version
 SystemC 2.3.2-Accellera --- May  7 2018 21:50:58
$end

$timescale
     100 ps
$end

$scope module SystemC $end
$var wire    1  aaaaa  D       $end
$var wire    1  aaaab  CLK       $end
$var wire    1  aaaac  Q1       $end
$upscope $end
$enddefinitions  $end

$comment
All initial values are dumped below at time 0 sec = 0 timescale units.
$end

$dumpvars
1aaaaa
1aaaab
1aaaac
$end

#25
0aaaab

#50
0aaaaa
1aaaab
0aaaac

#75
0aaaab

#100
1aaaaa
1aaaab
1aaaac

#125
0aaaab

#150
0aaaaa
1aaaab
0aaaac

#175
0aaaab

#200
1aaaaa
1aaaab
1aaaac

#225
0aaaab

#250
0aaaaa
1aaaab
0aaaac

#275
0aaaab

#300
1aaaaa
1aaaab
1aaaac

#325
0aaaab

#350
0aaaaa
1aaaab
0aaaac

#375
0aaaab

#400
1aaaaa
1aaaab
1aaaac

#425
0aaaab

#450
0aaaaa
1aaaab
0aaaac

#475
0aaaab

#500
1aaaaa
1aaaab
1aaaac

#525
0aaaab

#550
0aaaaa
1aaaab
0aaaac

